50
18 50 50
18 100 100
18 12 89
9 37 40
2 2 16
10 85 75
9 72 41
3 70 17
6 52 28
16 65 83
15 96 52
12 89 10
7 39 84
14 31 44
17 86 97
10 80 73
15 51 55
2 64 21
8 83 73
9 22 89
2 14 17
10 30 18
10 72 7
1 17 90
6 24 17
1 38 83
16 47 15
15 58 98
10 72 62
15 21 58
8 46 88
12 94 50
3 99 83
14 67 16
10 30 25
14 23 33
17 68 80
3 51 35
9 86 86
16 30 30
17 67 3
4 62 79
6 17 3
15 56 73
11 86 62
7 70 9
16 51 18
11 86 25
4 29 8
5 6 89