0.5266
0.0000
0.6772
0.8447
0.0260
0.4074
0.7781
0.8006
0.8133
0.5533
0.3991
0.5725
0.8276
0.7552
0.6872
0.4920
0.5445
0.4356
0.7434
0.6271
0.0479
0.8024
0.4508
0.0000
0.5673
0.0000
0.7190
0.3189
0.6486
0.7176
0.7764
0.6567
1.0000
0.6812
0.8423
0.8174
0.5621
0.6516
0.4652
0.7809
0.4269
0.8718
0.2718
0.5662
0.5383
0.5814
0.7238
0.6966
0.3469
0.6652