5040
20922789888000
39916800
40320
720
51090942171709440000
120
1124000727777607680000
3628800
403291461126605635584000000
51090942171709440000
1307674368000
40320
15511210043330985984000000
1307674368000
51090942171709440000
6227020800
10888869450418352160768000000
620448401733239439360000
87178291200